%YAML 1.1
%TAG !u! tag:unity3d.com,2011:
--- !u!74 &7400000
AnimationClip:
  m_ObjectHideFlags: 0
  m_CorrespondingSourceObject: {fileID: 0}
  m_PrefabInstance: {fileID: 0}
  m_PrefabAsset: {fileID: 0}
  m_Name: Idle
  serializedVersion: 6
  m_Legacy: 0
  m_Compressed: 0
  m_UseHighQualityCurve: 1
  m_RotationCurves: []
  m_CompressedRotationCurves: []
  m_EulerCurves: []
  m_PositionCurves: []
  m_ScaleCurves: []
  m_FloatCurves: []
  m_PPtrCurves:
  - curve:
    - time: 0
      value: {fileID: 21300000, guid: 4ceaa857b1fd6ea4083780dd95b196da, type: 3}
    - time: 0.083333336
      value: {fileID: 21300000, guid: a08099c0eb1ccfb4985bf99b6e7e939a, type: 3}
    - time: 0.16666667
      value: {fileID: 21300000, guid: 8df6673dbf62c8c4da445a050c05892a, type: 3}
    - time: 0.25
      value: {fileID: 21300000, guid: 43ec8eda1b5a76a4bba031265ce65312, type: 3}
    - time: 0.33333334
      value: {fileID: 21300000, guid: 19775a3805842754f90837b2c05881bb, type: 3}
    - time: 0.41666666
      value: {fileID: 21300000, guid: 7d6a8f8c3e98ad448acf3e3afb974d9b, type: 3}
    - time: 0.5
      value: {fileID: 21300000, guid: c31f70883700dad489939791aca61421, type: 3}
    - time: 0.5833333
      value: {fileID: 21300000, guid: eeba2e26f0184bd4a90a195498692f33, type: 3}
    - time: 0.6666667
      value: {fileID: 21300000, guid: d68e78452df30b94bac232c8bea6da68, type: 3}
    attribute: m_Sprite
    path: 
    classID: 212
    script: {fileID: 0}
  m_SampleRate: 12
  m_WrapMode: 0
  m_Bounds:
    m_Center: {x: 0, y: 0, z: 0}
    m_Extent: {x: 0, y: 0, z: 0}
  m_ClipBindingConstant:
    genericBindings:
    - serializedVersion: 2
      path: 0
      attribute: 0
      script: {fileID: 0}
      typeID: 212
      customType: 23
      isPPtrCurve: 1
    pptrCurveMapping:
    - {fileID: 21300000, guid: 4ceaa857b1fd6ea4083780dd95b196da, type: 3}
    - {fileID: 21300000, guid: a08099c0eb1ccfb4985bf99b6e7e939a, type: 3}
    - {fileID: 21300000, guid: 8df6673dbf62c8c4da445a050c05892a, type: 3}
    - {fileID: 21300000, guid: 43ec8eda1b5a76a4bba031265ce65312, type: 3}
    - {fileID: 21300000, guid: 19775a3805842754f90837b2c05881bb, type: 3}
    - {fileID: 21300000, guid: 7d6a8f8c3e98ad448acf3e3afb974d9b, type: 3}
    - {fileID: 21300000, guid: c31f70883700dad489939791aca61421, type: 3}
    - {fileID: 21300000, guid: eeba2e26f0184bd4a90a195498692f33, type: 3}
    - {fileID: 21300000, guid: d68e78452df30b94bac232c8bea6da68, type: 3}
  m_AnimationClipSettings:
    serializedVersion: 2
    m_AdditiveReferencePoseClip: {fileID: 0}
    m_AdditiveReferencePoseTime: 0
    m_StartTime: 0
    m_StopTime: 0.75
    m_OrientationOffsetY: 0
    m_Level: 0
    m_CycleOffset: 0
    m_HasAdditiveReferencePose: 0
    m_LoopTime: 1
    m_LoopBlend: 0
    m_LoopBlendOrientation: 0
    m_LoopBlendPositionY: 0
    m_LoopBlendPositionXZ: 0
    m_KeepOriginalOrientation: 0
    m_KeepOriginalPositionY: 1
    m_KeepOriginalPositionXZ: 0
    m_HeightFromFeet: 0
    m_Mirror: 0
  m_EditorCurves: []
  m_EulerEditorCurves: []
  m_HasGenericRootTransform: 0
  m_HasMotionFloatCurves: 0
  m_Events: []
