%YAML 1.1
%TAG !u! tag:unity3d.com,2011:
--- !u!1045 &1
EditorBuildSettings:
  m_ObjectHideFlags: 0
  serializedVersion: 2
  m_Scenes:
  - enabled: 1
    path: Assets/Resources/Scenes/Level1.unity
    guid: 516b553618668e64ba7ef5f374e1f3e1
  m_configObjects: {}
